<svg width="49" height="49" viewBox="0 0 49 49" fill="none" xmlns="http://www.w3.org/2000/svg">
<rect opacity="0.5" x="24.5" y="-4.24264" width="40.6482" height="40.6482" rx="20.3241" transform="rotate(45 24.5 -4.24264)" stroke="white" stroke-opacity="0.3" stroke-width="6"/>
<rect opacity="0.5" x="24.5" y="1.41421" width="32.6482" height="32.6482" rx="16.3241" transform="rotate(45 24.5 1.41421)" fill="#121D26" stroke="white" stroke-width="2"/>
<path fill-rule="evenodd" clip-rule="evenodd" d="M24.5 16C25.3284 16 26 16.6618 26 17.4783V24.8696C26 25.686 25.3284 26.3478 24.5 26.3478C23.6716 26.3478 23 25.686 23 24.8696V17.4783C23 16.6618 23.6716 16 24.5 16ZM24.5 29.3043C25.3284 29.3043 26 29.9662 26 30.7826V31.5217C26 32.3382 25.3284 33 24.5 33C23.6716 33 23 32.3382 23 31.5217V30.7826C23 29.9662 23.6716 29.3043 24.5 29.3043Z" fill="#FCFCFC"/>
</svg>
