<svg width="47" height="47" viewBox="0 0 47 47" fill="none" xmlns="http://www.w3.org/2000/svg">
<g clip-path="url(#clip0_1_88)">
<rect opacity="0.5" x="23.5" y="-5.24264" width="40.6482" height="40.6482" rx="20.3241" transform="rotate(45 23.5 -5.24264)" stroke="white" stroke-opacity="0.3" stroke-width="6"/>
<rect opacity="0.5" x="23.5" y="0.414214" width="32.6482" height="32.6482" rx="16.3241" transform="rotate(45 23.5 0.414214)" fill="#121D26" stroke="white" stroke-width="2"/>
<circle cx="23.5" cy="23.4999" r="3.16667" stroke="white" stroke-width="1.5"/>
<path d="M21.7844 16.0712C22.561 14.7752 24.439 14.7752 25.2155 16.0712L25.258 16.142C25.7109 16.8978 26.605 17.2682 27.4597 17.054L27.5398 17.0339C29.0053 16.6667 30.3332 17.9946 29.966 19.4601L29.9459 19.5402C29.7317 20.3949 30.1021 21.289 30.8579 21.7419L30.9287 21.7844C32.2247 22.5609 32.2247 24.4389 30.9287 25.2155L30.8579 25.2579C30.1021 25.7108 29.7317 26.605 29.9459 27.4597L29.966 27.5397C30.3332 29.0053 29.0053 30.3332 27.5398 29.9659L27.4597 29.9458C26.605 29.7317 25.7109 30.102 25.258 30.8578L25.2155 30.9287C24.439 32.2246 22.561 32.2246 21.7844 30.9287L21.742 30.8578C21.2891 30.102 20.3949 29.7317 19.5402 29.9458L19.4602 29.9659C17.9946 30.3332 16.6667 29.0053 17.034 27.5397L17.0541 27.4597C17.2682 26.605 16.8979 25.7108 16.1421 25.2579L16.0712 25.2155C14.7753 24.4389 14.7753 22.5609 16.0712 21.7844L16.1421 21.7419C16.8979 21.289 17.2682 20.3949 17.0541 19.5402L17.034 19.4601C16.6667 17.9946 17.9946 16.6667 19.4602 17.0339L19.5402 17.054C20.3949 17.2682 21.2891 16.8978 21.742 16.142L21.7844 16.0712Z" stroke="white" stroke-width="1.5"/>
</g>
<defs>
<clipPath id="clip0_1_88">
<rect width="47" height="47" fill="white"/>
</clipPath>
</defs>
</svg>
